<?xml version="1.0" encoding="UTF-8"?>
<session version="1.0">
<refactoring comment="Copy element &apos;jSerialComm-1.3.11.jar&apos; to &apos;lib&apos;&#x0D;&#x0A;- Original project: &apos;Quaternions&apos;&#x0D;&#x0A;- Destination element: &apos;lib&apos;&#x0D;&#x0A;- Original element: &apos;jSerialComm-1.3.11.jar&apos;" description="Copy file" element1="lib/jSerialComm-1.3.11.jar" files="1" flags="589830" folders="0" id="org.eclipse.jdt.ui.copy" policy="org.eclipse.jdt.ui.copyResources" stamp="1516614533213" target="/SerialRead/lib" units="0" version="1.0"/>
</session>